<?xml version="1.0" standalone="no"?>
<!DOCTYPE svg PUBLIC "-//W3C//DTD SVG 1.1//EN" "http://www.w3.org/Graphics/SVG/1.1/DTD/svg11.dtd" >
<svg xmlns="http://www.w3.org/2000/svg" xmlns:xlink="http://www.w3.org/1999/xlink" version="1.1" viewBox="-10 0 2058 2048">
  <g transform="matrix(1 0 0 -1 0 1638)">
   <path fill="currentColor"
d="M864 1334l144 -144h64l112 112v64l-112 112h-48q-32 0 -32 -16l-128 -120v-8v0zM1504 694v-8l176 -168h8l136 144v72l-144 136q-16 0 -16 -16l-160 -152v-8v0zM256 630l144 -144h64l112 112v64l-112 112h-48q-32 0 -32 -16l-128 -120v-8v0zM864 22l144 -144h64l112 112
v64l-112 112h-48q-32 0 -32 -16l-128 -120v-8v0z" />
  </g>

</svg>
