<?xml version="1.0" standalone="no"?>
<!DOCTYPE svg PUBLIC "-//W3C//DTD SVG 1.1//EN" "http://www.w3.org/Graphics/SVG/1.1/DTD/svg11.dtd" >
<svg xmlns="http://www.w3.org/2000/svg" xmlns:xlink="http://www.w3.org/1999/xlink" version="1.1" viewBox="-10 0 2058 2048">
  <g transform="matrix(1 0 0 -1 0 1638)">
   <path fill="currentColor"
d="M864 1494v-96l48 -48h96l48 48v96l-48 48h-80q-32 0 -32 -16q-16 -20 -32 -24v-8v0zM864 1238v-96l48 -48h96l48 48v96l-48 48h-80q-32 0 -32 -16q-16 -20 -32 -24v-8v0zM864 950v-96l48 -48h96l48 48v96l-48 48h-80q-32 0 -32 -16q-16 -20 -32 -24v-8v0zM864 662v-96
l48 -48h96l48 48v96l-48 48h-80q-32 0 -32 -16q-16 -20 -32 -24v-8v0zM864 406v-96l48 -48h96l48 48v96l-48 48h-80q-32 0 -32 -16q-16 -20 -32 -24v-8v0zM864 118v-96l48 -48h96l48 48v96l-48 48h-80q-32 0 -32 -16q-16 -20 -32 -24v-8v0zM864 -138v-96l48 -48h96l48 48v96
l-48 48h-80q-32 0 -32 -16q-16 -20 -32 -24v-8v0z" />
  </g>

</svg>
